P(a|a) = 0.111169521925
P(b|a) = 0.0384615384615
P(c|a) = 0.0384615384615
P(d|a) = 0.0758661887694
P(e|a) = 0.0134549038935
P(f|a) = 0.03125
P(g|a) = 0.0820895522388
P(h|a) = 0.159020883259
P(i|a) = 0.0289635221901
P(j|a) = 0.444645441389
P(k|a) = 0.215925975956
P(l|a) = 0.138046499874
P(m|a) = 0.244933210502
P(n|a) = 0.062494095418
P(o|a) = 0.0251520176893
P(p|a) = 0.244980626981
P(q|a) = 0.0384615384615
P(r|a) = 0.175380228137
P(s|a) = 0.152574791564
P(t|a) = 0.209352973786
P(u|a) = 0.0254261567111
P(v|a) = 0.405195500803
P(w|a) = 0.428026449644
P(x|a) = 0.0384615384615
P(y|a) = 0.00190677966102
P(z|a) = 0.0384615384615
P(a|b) = 3.09233718845e-05
P(b|b) = 0.0384615384615
P(c|b) = 0.0384615384615
P(d|b) = 0.000597371565114
P(e|b) = 4.92853622474e-05
P(f|b) = 0.03125
P(g|b) = 0.00746268656716
P(h|b) = 0.000171174255392
P(i|b) = 3.52783461511e-05
P(j|b) = 0.000361794500724
P(k|b) = 6.75401864109e-05
P(l|b) = 6.31791761435e-05
P(m|b) = 0.000115154306771
P(n|b) = 4.72366556448e-05
P(o|b) = 9.2131932928e-05
P(p|b) = 0.000176118351532
P(q|b) = 0.0384615384615
P(r|b) = 0.000158428390368
P(s|b) = 4.90436488475e-05
P(t|b) = 3.95976874951e-05
P(u|b) = 7.16229766509e-05
P(v|b) = 0.000267809319764
P(w|b) = 0.000254323499491
P(x|b) = 0.0384615384615
P(y|b) = 0.00021186440678
P(z|b) = 0.0384615384615
P(a|c) = 3.09233718845e-05
P(b|c) = 0.0384615384615
P(c|c) = 0.0384615384615
P(d|c) = 0.000597371565114
P(e|c) = 4.92853622474e-05
P(f|c) = 0.03125
P(g|c) = 0.00746268656716
P(h|c) = 0.000171174255392
P(i|c) = 3.52783461511e-05
P(j|c) = 0.000361794500724
P(k|c) = 6.75401864109e-05
P(l|c) = 6.31791761435e-05
P(m|c) = 0.000115154306771
P(n|c) = 4.72366556448e-05
P(o|c) = 9.2131932928e-05
P(p|c) = 0.000176118351532
P(q|c) = 0.0384615384615
P(r|c) = 0.000158428390368
P(s|c) = 4.90436488475e-05
P(t|c) = 3.95976874951e-05
P(u|c) = 7.16229766509e-05
P(v|c) = 0.000267809319764
P(w|c) = 0.000254323499491
P(x|c) = 0.0384615384615
P(y|c) = 0.00021186440678
P(z|c) = 0.0384615384615
P(a|d) = 0.00275218009772
P(b|d) = 0.0384615384615
P(c|d) = 0.0384615384615
P(d|d) = 0.000597371565114
P(e|d) = 0.00547067520946
P(f|d) = 0.03125
P(g|d) = 0.00746268656716
P(h|d) = 0.0655597398151
P(i|d) = 0.007937627884
P(j|d) = 0.00108538350217
P(k|d) = 0.00141834391463
P(l|d) = 6.31791761435e-05
P(m|d) = 0.000115154306771
P(n|d) = 0.000330656589513
P(o|d) = 0.0142804496038
P(p|d) = 0.000176118351532
P(q|d) = 0.0384615384615
P(r|d) = 0.000158428390368
P(s|d) = 0.000245218244237
P(t|d) = 3.95976874951e-05
P(u|d) = 0.0257126486177
P(v|d) = 0.000267809319764
P(w|d) = 0.000254323499491
P(x|d) = 0.0384615384615
P(y|d) = 0.0625
P(z|d) = 0.0384615384615
P(a|e) = 0.00361803451048
P(b|e) = 0.0384615384615
P(c|e) = 0.0384615384615
P(d|e) = 0.459378733572
P(e|e) = 0.0815672745195
P(f|e) = 0.21875
P(g|e) = 0.201492537313
P(h|e) = 0.144299897295
P(i|e) = 0.0456854582657
P(j|e) = 0.0857452966715
P(k|e) = 0.10124273943
P(l|e) = 0.155989385898
P(m|e) = 0.132772915707
P(n|e) = 0.0927255550307
P(o|e) = 0.00580431177446
P(p|e) = 0.115709756957
P(q|e) = 0.0384615384615
P(r|e) = 0.0739860583016
P(s|e) = 0.13531142717
P(t|e) = 0.0949156569256
P(u|e) = 0.00580146110872
P(v|e) = 0.119175147295
P(w|e) = 0.0862156663276
P(x|e) = 0.0384615384615
P(y|e) = 0.00529661016949
P(z|e) = 0.0384615384615
P(a|f) = 3.09233718845e-05
P(b|f) = 0.0384615384615
P(c|f) = 0.0384615384615
P(d|f) = 0.00418160095579
P(e|f) = 4.92853622474e-05
P(f|f) = 0.03125
P(g|f) = 0.00746268656716
P(h|f) = 0.000171174255392
P(i|f) = 3.52783461511e-05
P(j|f) = 0.000361794500724
P(k|f) = 6.75401864109e-05
P(l|f) = 6.31791761435e-05
P(m|f) = 0.000115154306771
P(n|f) = 4.72366556448e-05
P(o|f) = 9.2131932928e-05
P(p|f) = 0.000176118351532
P(q|f) = 0.0384615384615
P(r|f) = 0.000158428390368
P(s|f) = 4.90436488475e-05
P(t|f) = 3.95976874951e-05
P(u|f) = 7.16229766509e-05
P(v|f) = 0.000267809319764
P(w|f) = 0.000254323499491
P(x|f) = 0.0384615384615
P(y|f) = 0.00021186440678
P(z|f) = 0.0384615384615
P(a|g) = 3.09233718845e-05
P(b|g) = 0.0384615384615
P(c|g) = 0.0384615384615
P(d|g) = 0.000597371565114
P(e|g) = 4.92853622474e-05
P(f|g) = 0.03125
P(g|g) = 0.00746268656716
P(h|g) = 0.000171174255392
P(i|g) = 0.000105835038453
P(j|g) = 0.000361794500724
P(k|g) = 6.75401864109e-05
P(l|g) = 6.31791761435e-05
P(m|g) = 0.000115154306771
P(n|g) = 0.0049598488427
P(o|g) = 9.2131932928e-05
P(p|g) = 0.000176118351532
P(q|g) = 0.0384615384615
P(r|g) = 0.000158428390368
P(s|g) = 4.90436488475e-05
P(t|g) = 3.95976874951e-05
P(u|g) = 7.16229766509e-05
P(v|g) = 0.000267809319764
P(w|g) = 0.000254323499491
P(x|g) = 0.0384615384615
P(y|g) = 0.00021186440678
P(z|g) = 0.0384615384615
P(a|h) = 0.0209351227658
P(b|h) = 0.0384615384615
P(c|h) = 0.0384615384615
P(d|h) = 0.000597371565114
P(e|h) = 0.024691966486
P(f|h) = 0.03125
P(g|h) = 0.0223880597015
P(h|h) = 0.00085587127696
P(i|h) = 0.0201439356523
P(j|h) = 0.0061505065123
P(k|h) = 0.00317438876131
P(l|h) = 0.0101718473591
P(m|h) = 0.00103638876094
P(n|h) = 0.0133679735475
P(o|h) = 0.0316012529943
P(p|h) = 0.00440295878831
P(q|h) = 0.0384615384615
P(r|h) = 0.0264575411914
P(s|h) = 0.00161844041197
P(t|h) = 0.00257384968718
P(u|h) = 0.0333046841427
P(v|h) = 0.00937332619175
P(w|h) = 0.0124618514751
P(x|h) = 0.0384615384615
P(y|h) = 0.0608050847458
P(z|h) = 0.0384615384615
P(a|i) = 0.0816686251469
P(b|i) = 0.0384615384615
P(c|i) = 0.0384615384615
P(d|i) = 0.0782556750299
P(e|i) = 0.0558403154263
P(f|i) = 0.03125
P(g|i) = 0.320895522388
P(h|i) = 0.0977404998288
P(i|i) = 0.0509772101884
P(j|i) = 0.031476121563
P(k|i) = 0.163379710928
P(l|i) = 0.141963608795
P(m|i) = 0.203247351451
P(n|i) = 0.0482286254133
P(o|i) = 0.209415883545
P(p|i) = 0.20341669602
P(q|i) = 0.0384615384615
P(r|i) = 0.176964512041
P(s|i) = 0.193379107406
P(t|i) = 0.0938861170508
P(u|i) = 0.068113450795
P(v|i) = 0.194697375469
P(w|i) = 0.175737538149
P(x|i) = 0.0384615384615
P(y|i) = 0.0459745762712
P(z|i) = 0.0384615384615
P(a|j) = 0.0117199579442
P(b|j) = 0.0384615384615
P(c|j) = 0.0384615384615
P(d|j) = 0.000597371565114
P(e|j) = 0.00211927057664
P(f|j) = 0.03125
P(g|j) = 0.00746268656716
P(h|j) = 0.0155768572407
P(i|j) = 0.00829041134552
P(j|j) = 0.000361794500724
P(k|j) = 0.000337700932055
P(l|j) = 0.0153525398029
P(m|j) = 0.000115154306771
P(n|j) = 0.00099196976854
P(o|j) = 0.0369449051041
P(p|j) = 0.00123282846073
P(q|j) = 0.0384615384615
P(r|j) = 0.0587769328264
P(s|j) = 0.000147130946542
P(t|j) = 0.00146511443732
P(u|j) = 0.00823664231485
P(v|j) = 0.00187466523835
P(w|j) = 0.000254323499491
P(x|j) = 0.0384615384615
P(y|j) = 0.00614406779661
P(z|j) = 0.0384615384615
P(a|k) = 0.0418393221597
P(b|k) = 0.0384615384615
P(c|k) = 0.0384615384615
P(d|k) = 0.00776583034648
P(e|k) = 0.0296205027107
P(f|k) = 0.03125
P(g|k) = 0.00746268656716
P(h|k) = 0.0326942827799
P(i|k) = 0.0614901573414
P(j|k) = 0.0061505065123
P(k|k) = 0.0732811022558
P(l|k) = 0.0388551933283
P(m|k) = 0.00909719023491
P(n|k) = 0.051724137931
P(o|k) = 0.047263681592
P(p|k) = 0.00299401197605
P(q|k) = 0.0384615384615
P(r|k) = 0.0730354879594
P(s|k) = 0.0373222167729
P(t|k) = 0.0272828066841
P(u|k) = 0.0772811918063
P(v|k) = 0.0141938939475
P(w|k) = 0.0165310274669
P(x|k) = 0.0384615384615
P(y|k) = 0.0646186440678
P(z|k) = 0.0384615384615
P(a|l) = 0.0628053682974
P(b|l) = 0.0384615384615
P(c|l) = 0.0384615384615
P(d|l) = 0.00776583034648
P(e|l) = 0.153523903401
P(f|l) = 0.03125
P(g|l) = 0.00746268656716
P(h|l) = 0.00667579596029
P(i|l) = 0.0688280533409
P(j|l) = 0.0264109985528
P(k|l) = 0.00357962987978
P(l|l) = 0.232562547384
P(m|l) = 0.00840626439429
P(n|l) = 0.0067548417572
P(o|l) = 0.0986733001658
P(p|l) = 0.0128566396619
P(q|l) = 0.0384615384615
P(r|l) = 0.00174271229404
P(s|l) = 0.00407062285434
P(t|l) = 0.00170270056229
P(u|l) = 0.0821515542186
P(v|l) = 0.02276379218
P(w|l) = 0.015513733469
P(x|l) = 0.0384615384615
P(y|l) = 0.0756355932203
P(z|l) = 0.0384615384615
P(a|m) = 0.0273671841178
P(b|m) = 0.0384615384615
P(c|m) = 0.0384615384615
P(d|m) = 0.0651135005974
P(e|m) = 0.0497289305076
P(f|m) = 0.03125
P(g|m) = 0.00746268656716
P(h|m) = 0.0391989044848
P(i|m) = 0.0331969237282
P(j|m) = 0.00397973950796
P(k|m) = 0.00141834391463
P(l|m) = 0.0316527672479
P(m|m) = 0.131621372639
P(n|m) = 0.00288143599433
P(o|m) = 0.0673484429703
P(p|m) = 0.00264177527298
P(q|m) = 0.0384615384615
P(r|m) = 0.0299429657795
P(s|m) = 0.00191270230505
P(t|m) = 0.00930545656134
P(u|m) = 0.0394642601347
P(v|m) = 0.00133904659882
P(w|m) = 0.000762970498474
P(x|m) = 0.0384615384615
P(y|m) = 0.0582627118644
P(z|m) = 0.0384615384615
P(a|n) = 0.140979652421
P(b|n) = 0.0384615384615
P(c|n) = 0.0384615384615
P(d|n) = 0.0495818399044
P(e|n) = 0.227057663874
P(f|n) = 0.03125
P(g|n) = 0.00746268656716
P(h|n) = 0.0378295104416
P(i|n) = 0.163232907641
P(j|n) = 0.0162807525326
P(k|n) = 0.0174929082804
P(l|n) = 0.00852918877938
P(m|n) = 0.0344311377246
P(n|n) = 0.056920170052
P(o|n) = 0.11580983969
P(p|n) = 0.00616414230363
P(q|n) = 0.0384615384615
P(r|n) = 0.0112484157161
P(s|n) = 0.0121137812653
P(t|n) = 0.0161954541855
P(u|n) = 0.0973356252686
P(v|n) = 0.023835029459
P(w|n) = 0.0267039674466
P(x|n) = 0.0384615384615
P(y|n) = 0.0951271186441
P(z|n) = 0.0384615384615
P(a|o) = 0.000587544065805
P(b|o) = 0.0384615384615
P(c|o) = 0.0384615384615
P(d|o) = 0.118876941458
P(e|o) = 0.00379497289305
P(f|o) = 0.03125
P(g|o) = 0.15671641791
P(h|o) = 0.0559739815132
P(i|o) = 0.00582092711494
P(j|o) = 0.204413892909
P(k|o) = 0.111373767392
P(l|o) = 0.0487111448067
P(m|o) = 0.0413403961308
P(n|o) = 0.0333963155409
P(o|o) = 0.0216510042381
P(p|o) = 0.0734413525889
P(q|o) = 0.0384615384615
P(r|o) = 0.0565589353612
P(s|o) = 0.0159391858754
P(t|o) = 0.0562683139305
P(u|o) = 0.0976221171752
P(v|o) = 0.0629351901446
P(w|o) = 0.0953713123093
P(x|o) = 0.0384615384615
P(y|o) = 0.00021186440678
P(z|o) = 0.0384615384615
P(a|p) = 0.0188323334776
P(b|p) = 0.0384615384615
P(c|p) = 0.0384615384615
P(d|p) = 0.000597371565114
P(e|p) = 0.00783637259734
P(f|p) = 0.03125
P(g|p) = 0.00746268656716
P(h|p) = 0.00462170489558
P(i|p) = 0.0114654624991
P(j|p) = 0.000361794500724
P(k|p) = 0.00195866540592
P(l|p) = 0.00802375537023
P(m|p) = 0.0480193459235
P(n|p) = 0.00628247520076
P(o|p) = 0.0253362815552
P(p|p) = 0.0646354350123
P(q|p) = 0.0384615384615
P(r|p) = 0.0141001267427
P(s|p) = 0.00181461500736
P(t|p) = 0.00170270056229
P(u|p) = 0.0176908752328
P(v|p) = 0.00187466523835
P(w|p) = 0.000254323499491
P(x|p) = 0.0384615384615
P(y|p) = 0.0218220338983
P(z|p) = 0.0384615384615
P(a|q) = 3.09233718845e-05
P(b|q) = 0.0384615384615
P(c|q) = 0.0384615384615
P(d|q) = 0.000597371565114
P(e|q) = 4.92853622474e-05
P(f|q) = 0.03125
P(g|q) = 0.00746268656716
P(h|q) = 0.000171174255392
P(i|q) = 3.52783461511e-05
P(j|q) = 0.000361794500724
P(k|q) = 6.75401864109e-05
P(l|q) = 6.31791761435e-05
P(m|q) = 0.000115154306771
P(n|q) = 4.72366556448e-05
P(o|q) = 9.2131932928e-05
P(p|q) = 0.000176118351532
P(q|q) = 0.0384615384615
P(r|q) = 0.000158428390368
P(s|q) = 4.90436488475e-05
P(t|q) = 3.95976874951e-05
P(u|q) = 7.16229766509e-05
P(v|q) = 0.000267809319764
P(w|q) = 0.000254323499491
P(x|q) = 0.0384615384615
P(y|q) = 0.00021186440678
P(z|q) = 0.0384615384615
P(a|r) = 0.0451790463232
P(b|r) = 0.0384615384615
P(c|r) = 0.0384615384615
P(d|r) = 0.000597371565114
P(e|r) = 0.0496303597831
P(f|r) = 0.03125
P(g|r) = 0.00746268656716
P(h|r) = 0.0128380691544
P(i|r) = 0.0185916884216
P(j|r) = 0.0162807525326
P(k|r) = 0.00844252330136
P(l|r) = 0.000189537528431
P(m|r) = 0.0137033625058
P(n|r) = 0.00118091639112
P(o|r) = 0.0417357656164
P(p|r) = 0.0100387460373
P(q|r) = 0.0384615384615
P(r|r) = 0.0302598225602
P(s|r) = 0.00122609122119
P(t|r) = 0.00257384968718
P(u|r) = 0.0540753473714
P(v|r) = 0.00776647027317
P(w|r) = 0.0089013224822
P(x|r) = 0.0384615384615
P(y|r) = 0.0307203389831
P(z|r) = 0.0384615384615
P(a|s) = 0.0620632073721
P(b|s) = 0.0384615384615
P(c|s) = 0.0384615384615
P(d|s) = 0.00179211469534
P(e|s) = 0.0778215869887
P(f|s) = 0.03125
P(g|s) = 0.00746268656716
P(h|s) = 0.00188291680931
P(i|s) = 0.182283214563
P(j|s) = 0.0126628075253
P(k|s) = 0.132176144806
P(l|s) = 0.00587566338135
P(m|s) = 0.0137033625058
P(n|s) = 0.0738308927728
P(o|s) = 0.0725078312143
P(p|s) = 0.0311729482212
P(q|s) = 0.0384615384615
P(r|s) = 0.0426172370089
P(s|s) = 0.0836194212849
P(t|s) = 0.0223726934347
P(u|s) = 0.0788568972927
P(v|s) = 0.0168719871452
P(w|s) = 0.0114445574771
P(x|s) = 0.0384615384615
P(y|s) = 0.0972457627119
P(z|s) = 0.0384615384615
P(a|t) = 0.0740614756633
P(b|t) = 0.0384615384615
P(c|t) = 0.0384615384615
P(d|t) = 0.0173237753883
P(e|t) = 0.103252833908
P(f|t) = 0.03125
P(g|t) = 0.00746268656716
P(h|t) = 0.145326942828
P(i|t) = 0.0819515981091
P(j|t) = 0.0227930535456
P(k|t) = 0.00466027286235
P(l|t) = 0.0537654788982
P(m|t) = 0.0127821280516
P(n|t) = 0.0494567784601
P(o|t) = 0.0901971623365
P(p|t) = 0.0167312433956
P(q|t) = 0.0384615384615
P(r|t) = 0.0590937896071
P(s|t) = 0.210838646395
P(t|t) = 0.13783955017
P(u|t) = 0.129136226902
P(v|t) = 0.0495447241564
P(w|t) = 0.0384028484232
P(x|t) = 0.0384615384615
P(y|t) = 0.178177966102
P(z|t) = 0.0384615384615
P(a|u) = 0.0277382645804
P(b|u) = 0.0384615384615
P(c|u) = 0.0384615384615
P(d|u) = 0.0567502986858
P(e|u) = 0.00892065056678
P(f|u) = 0.03125
P(g|u) = 0.00746268656716
P(h|u) = 0.10253337898
P(i|u) = 0.00412756649968
P(j|u) = 0.0828509406657
P(k|u) = 0.10651087397
P(l|u) = 0.0525018953753
P(m|u) = 0.0768079226163
P(n|u) = 0.0410486537553
P(o|u) = 0.0314169891284
P(p|u) = 0.149876717154
P(q|u) = 0.0384615384615
P(r|u) = 0.072401774398
P(s|u) = 0.0452672878862
P(t|u) = 0.104815078799
P(u|u) = 0.102062741728
P(v|u) = 0.0441885377611
P(w|u) = 0.0531536113937
P(x|u) = 0.0384615384615
P(y|u) = 0.00021186440678
P(z|u) = 0.0384615384615
P(a|v) = 0.012585812357
P(b|v) = 0.0384615384615
P(c|v) = 0.0384615384615
P(d|v) = 0.000597371565114
P(e|v) = 0.0140463282405
P(f|v) = 0.03125
P(g|v) = 0.00746268656716
P(h|v) = 0.00907223553578
P(i|v) = 0.0262118111903
P(j|v) = 0.000361794500724
P(k|v) = 0.00209374577874
P(l|v) = 0.0104245640637
P(m|v) = 0.000115154306771
P(n|v) = 0.000803023145961
P(o|v) = 0.00985811682329
P(p|v) = 0.00228953856992
P(q|v) = 0.0384615384615
P(r|v) = 0.0274081115336
P(s|v) = 0.00328592447278
P(t|v) = 0.00455373406193
P(u|v) = 0.0142529723535
P(v|v) = 0.00294590251741
P(w|v) = 0.000254323499491
P(x|v) = 0.0384615384615
P(y|v) = 0.0247881355932
P(z|v) = 0.0384615384615
P(a|w) = 0.0148741418764
P(b|w) = 0.0384615384615
P(c|w) = 0.0384615384615
P(d|w) = 0.000597371565114
P(e|w) = 0.0120749137506
P(f|w) = 0.03125
P(g|w) = 0.00746268656716
P(h|w) = 0.00907223553578
P(i|w) = 0.0263529245749
P(j|w) = 0.000361794500724
P(k|w) = 0.00182358503309
P(l|w) = 0.00840283042709
P(m|w) = 0.000115154306771
P(n|w) = 0.00174775625886
P(o|w) = 0.0111479638843
P(p|w) = 0.000880591757661
P(q|w) = 0.0384615384615
P(r|w) = 0.0362801013942
P(s|w) = 0.00318783717509
P(t|w) = 0.00692959531163
P(u|w) = 0.0116745451941
P(v|w) = 0.000267809319764
P(w|w) = 0.000762970498474
P(x|w) = 0.0384615384615
P(y|w) = 0.0345338983051
P(z|w) = 0.0384615384615
P(a|x) = 3.09233718845e-05
P(b|x) = 0.0384615384615
P(c|x) = 0.0384615384615
P(d|x) = 0.000597371565114
P(e|x) = 4.92853622474e-05
P(f|x) = 0.03125
P(g|x) = 0.00746268656716
P(h|x) = 0.000171174255392
P(i|x) = 3.52783461511e-05
P(j|x) = 0.000361794500724
P(k|x) = 6.75401864109e-05
P(l|x) = 6.31791761435e-05
P(m|x) = 0.000115154306771
P(n|x) = 4.72366556448e-05
P(o|x) = 9.2131932928e-05
P(p|x) = 0.000176118351532
P(q|x) = 0.0384615384615
P(r|x) = 0.000158428390368
P(s|x) = 4.90436488475e-05
P(t|x) = 3.95976874951e-05
P(u|x) = 7.16229766509e-05
P(v|x) = 0.000267809319764
P(w|x) = 0.000254323499491
P(x|x) = 0.0384615384615
P(y|x) = 0.00021186440678
P(z|x) = 0.0384615384615
P(a|y) = 9.27701156534e-05
P(b|y) = 0.0384615384615
P(c|y) = 0.0384615384615
P(d|y) = 0.0340501792115
P(e|y) = 0.00261212419911
P(f|y) = 0.03125
P(g|y) = 0.0671641791045
P(h|y) = 0.0511811023622
P(i|y) = 0.000246948423058
P(j|y) = 0.0155571635311
P(k|y) = 0.0396460894232
P(l|y) = 0.0116881475866
P(m|y) = 0.0210732381391
P(n|y) = 0.0173358526216
P(o|y) = 0.00046065966464
P(p|y) = 0.035752025361
P(q|y) = 0.0384615384615
P(r|y) = 0.0248732572877
P(s|y) = 0.0291809710642
P(t|y) = 0.0351231488081
P(u|y) = 0.000358114883255
P(v|y) = 0.00723085163364
P(w|y) = 0.0114445574771
P(x|y) = 0.0384615384615
P(y|y) = 0.0917372881356
P(z|y) = 0.0384615384615
P(a|z) = 3.09233718845e-05
P(b|z) = 0.0384615384615
P(c|z) = 0.0384615384615
P(d|z) = 0.000597371565114
P(e|z) = 4.92853622474e-05
P(f|z) = 0.03125
P(g|z) = 0.00746268656716
P(h|z) = 0.000171174255392
P(i|z) = 3.52783461511e-05
P(j|z) = 0.000361794500724
P(k|z) = 6.75401864109e-05
P(l|z) = 6.31791761435e-05
P(m|z) = 0.000115154306771
P(n|z) = 4.72366556448e-05
P(o|z) = 9.2131932928e-05
P(p|z) = 0.000176118351532
P(q|z) = 0.0384615384615
P(r|z) = 0.000158428390368
P(s|z) = 4.90436488475e-05
P(t|z) = 3.95976874951e-05
P(u|z) = 7.16229766509e-05
P(v|z) = 0.000267809319764
P(w|z) = 0.000254323499491
P(x|z) = 0.0384615384615
P(y|z) = 0.00021186440678
P(z|z) = 0.0384615384615
