At least eat

UNIGRAM MODEL: 
UNIGRAM: A
ENGLISH: P(A) = -2.43433499178
FRENCH: P(A) = -2.84855275637
FINNISH: P(A) = -3.13923180491


UNIGRAM: t
ENGLISH: P(t) = -3.69731609879
FRENCH: P(t) = -4.14663640659
FINNISH: P(t) = -4.21551822963


UNIGRAM: l
ENGLISH: P(l) = -5.01311112818
FRENCH: P(l) = -5.51765015304
FINNISH: P(l) = -5.42550051247


UNIGRAM: e
ENGLISH: P(e) = -6.00668302052
FRENCH: P(e) = -6.42072398534
FINNISH: P(e) = -6.5501746519


UNIGRAM: a
ENGLISH: P(a) = -7.16003830174
FRENCH: P(a) = -7.51484412724
FINNISH: P(a) = -7.55588519157


UNIGRAM: s
ENGLISH: P(s) = -8.47788227531
FRENCH: P(s) = -8.86706299559
FINNISH: P(s) = -8.67365356485


UNIGRAM: t
ENGLISH: P(t) = -9.74086338232
FRENCH: P(t) = -10.1651466458
FINNISH: P(t) = -9.74993998957


UNIGRAM: e
ENGLISH: P(e) = -10.7344352747
FRENCH: P(e) = -11.0682204781
FINNISH: P(e) = -10.874614129


UNIGRAM: a
ENGLISH: P(a) = -11.8877905559
FRENCH: P(a) = -12.16234062
FINNISH: P(a) = -11.8803246687


UNIGRAM: t
ENGLISH: P(t) = -13.1507716629
FRENCH: P(t) = -13.4604242702
FINNISH: P(t) = -12.9566110934


According to the unigram model, the sentence is Finnish
----------------------
BIGRAM MODEL

BIGRAM: At
ENGLISH:P(A|t) = -1.99258750152
FRENCH:P(A|t) = -1.14826216519
FINNISH: P(A|t) = -2.34635297445


BIGRAM: tl
ENGLISH:P(t|l) = -3.56695213092
FRENCH:P(t|l) = -3.95723503936
FINNISH: P(t|l) = -5.115214695


BIGRAM: le
ENGLISH:P(l|e) = -4.2703845685
FRENCH:P(l|e) = -4.45147266399
FINNISH: P(l|e) = -5.92211964666


BIGRAM: ea
ENGLISH:P(e|a) = -5.4752803345
FRENCH:P(e|a) = -6.31429175582
FINNISH: P(e|a) = -7.79323904666


BIGRAM: as
ENGLISH:P(a|s) = -6.6470911941
FRENCH:P(a|s) = -7.70796697262
FINNISH: P(a|s) = -9.00040483087


BIGRAM: st
ENGLISH:P(s|t) = -7.49682061316
FRENCH:P(s|t) = -8.96865829807
FINNISH: P(s|t) = -9.67645461153


BIGRAM: te
ENGLISH:P(t|e) = -8.23616460106
FRENCH:P(t|e) = -9.6398892159
FINNISH: P(t|e) = -10.6991167536


BIGRAM: ea
ENGLISH:P(e|a) = -9.44106036706
FRENCH:P(e|a) = -11.5027083077
FINNISH: P(e|a) = -12.5702361536


BIGRAM: at
ENGLISH:P(a|t) = -10.3215183639
FRENCH:P(a|t) = -12.6208433363
FINNISH: P(a|t) = -13.7006437926


According to the bigram model, the sentence is English
