Jake Micheals söi hyvää

UNIGRAM MODEL: 
UNIGRAM: J
ENGLISH: P(J) = -3.32798722225
FRENCH: P(J) = -3.18643968336
FINNISH: P(J) = -3.32136341838


UNIGRAM: a
ENGLISH: P(a) = -4.48134250347
FRENCH: P(a) = -4.28055982525
FINNISH: P(a) = -4.32707395805


UNIGRAM: k
ENGLISH: P(k) = -6.58477851903
FRENCH: P(k) = -7.68884825822
FINNISH: P(k) = -5.55847292704


UNIGRAM: e
ENGLISH: P(e) = -7.57835041137
FRENCH: P(e) = -8.59192209053
FINNISH: P(e) = -6.68314706647


UNIGRAM: M
ENGLISH: P(M) = -10.3063572687
FRENCH: P(M) = -11.6081000585
FINNISH: P(M) = -9.52982909319


UNIGRAM: i
ENGLISH: P(i) = -11.4344810539
FRENCH: P(i) = -12.6936770783
FINNISH: P(i) = -10.5469446297


UNIGRAM: c
ENGLISH: P(c) = -12.9232985842
FRENCH: P(c) = -14.1624462586
FINNISH: P(c) = -11.9619179777


UNIGRAM: h
ENGLISH: P(h) = -14.5057237195
FRENCH: P(h) = -16.1083366937
FINNISH: P(h) = -13.5971259899


UNIGRAM: e
ENGLISH: P(e) = -15.4992956118
FRENCH: P(e) = -17.011410526
FINNISH: P(e) = -14.7218001293


UNIGRAM: a
ENGLISH: P(a) = -16.6526508931
FRENCH: P(a) = -18.1055306679
FINNISH: P(a) = -15.727510669


UNIGRAM: l
ENGLISH: P(l) = -17.9684459224
FRENCH: P(l) = -19.4765444144
FINNISH: P(l) = -16.9374929518


UNIGRAM: s
ENGLISH: P(s) = -19.286289896
FRENCH: P(s) = -20.8287632827
FINNISH: P(s) = -18.0552613251


UNIGRAM: s
ENGLISH: P(s) = -20.6041338696
FRENCH: P(s) = -22.1809821511
FINNISH: P(s) = -19.1730296984


UNIGRAM: i
ENGLISH: P(i) = -21.7322576548
FRENCH: P(i) = -23.2665591709
FINNISH: P(i) = -20.1901452349


UNIGRAM: h
ENGLISH: P(h) = -23.3146827901
FRENCH: P(h) = -25.2124496059
FINNISH: P(h) = -21.8253532471


UNIGRAM: y
ENGLISH: P(y) = -25.6078653512
FRENCH: P(y) = -27.7233728074
FINNISH: P(y) = -23.5697272083


UNIGRAM: v
ENGLISH: P(v) = -27.5981072471
FRENCH: P(v) = -29.5487325333
FINNISH: P(v) = -25.4025636091


According to the unigram model, the sentence is Finnish
----------------------
BIGRAM MODEL

BIGRAM: Ja
ENGLISH:P(J|a) = -0.903089986992
FRENCH:P(J|a) = -0.454093020728
FINNISH: P(J|a) = -0.760422483423


BIGRAM: ak
ENGLISH:P(a|k) = -2.66815456514
FRENCH:P(a|k) = -3.41408785906
FINNISH: P(a|k) = -2.13883784353


BIGRAM: ke
ENGLISH:P(k|e) = -3.12873556945
FRENCH:P(k|e) = -4.41916738459
FINNISH: P(k|e) = -3.13347395572


BIGRAM: eM
ENGLISH:P(e|M) = -6.68087261964
FRENCH:P(e|M) = -8.56754378542
FINNISH: P(e|M) = -7.44075600276


BIGRAM: Mi
ENGLISH:P(M|i) = -7.84509887741
FRENCH:P(M|i) = -9.4798417742
FINNISH: P(M|i) = -7.8989677247


BIGRAM: ic
ENGLISH:P(i|c) = -9.06694762703
FRENCH:P(i|c) = -11.0614410807
FINNISH: P(i|c) = -12.3514595075


BIGRAM: ch
ENGLISH:P(c|h) = -9.97168311606
FRENCH:P(c|h) = -11.8432644364
FINNISH: P(c|h) = -13.7664328555


BIGRAM: he
ENGLISH:P(h|e) = -10.555924749
FRENCH:P(h|e) = -12.3504183405
FINNISH: P(h|e) = -14.6071668335


BIGRAM: ea
ENGLISH:P(e|a) = -11.760820515
FRENCH:P(e|a) = -14.2132374324
FINNISH: P(e|a) = -16.4782862335


BIGRAM: al
ENGLISH:P(a|l) = -12.7043604084
FRENCH:P(a|l) = -15.4137155112
FINNISH: P(a|l) = -17.6802894668


BIGRAM: ls
ENGLISH:P(l|s) = -14.2144935419
FRENCH:P(l|s) = -17.2353399893
FINNISH: P(l|s) = -19.9112325598


BIGRAM: ss
ENGLISH:P(s|s) = -15.3785643033
FRENCH:P(s|s) = -18.2769959385
FINNISH: P(s|s) = -20.9889254023


BIGRAM: si
ENGLISH:P(s|i) = -16.6546234142
FRENCH:P(s|i) = -19.5274766798
FINNISH: P(s|i) = -21.702515851


BIGRAM: ih
ENGLISH:P(i|h) = -20.010301279
FRENCH:P(i|h) = -23.0442952585
FINNISH: P(i|h) = -23.3983715255


BIGRAM: hy
ENGLISH:P(h|y) = -21.8537894942
FRENCH:P(h|y) = -24.4496568914
FINNISH: P(h|y) = -24.6892618898


BIGRAM: yv
ENGLISH:P(y|v) = -24.7550142192
FRENCH:P(y|v) = -27.41813984
FINNISH: P(y|v) = -26.2950180267


According to the bigram model, the sentence is English
