Kaipasin sinua paljon

UNIGRAM MODEL: 
UNIGRAM: K
ENGLISH: P(K) = -3.34490992737
FRENCH: P(K) = -3.91096379217
FINNISH: P(K) = -2.8025178294


UNIGRAM: a
ENGLISH: P(a) = -4.49826520859
FRENCH: P(a) = -5.00508393406
FINNISH: P(a) = -3.80822836907


UNIGRAM: i
ENGLISH: P(i) = -5.62638899384
FRENCH: P(i) = -6.09066095385
FINNISH: P(i) = -4.82534390557


UNIGRAM: p
ENGLISH: P(p) = -7.24604735216
FRENCH: P(p) = -7.63494714529
FINNISH: P(p) = -6.47850940675


UNIGRAM: a
ENGLISH: P(a) = -8.39940263338
FRENCH: P(a) = -8.72906728718
FINNISH: P(a) = -7.48421994642


UNIGRAM: s
ENGLISH: P(s) = -9.71724660695
FRENCH: P(s) = -10.0812861555
FINNISH: P(s) = -8.60198831971


UNIGRAM: i
ENGLISH: P(i) = -10.8453703922
FRENCH: P(i) = -11.1668631753
FINNISH: P(i) = -9.61910385621


UNIGRAM: n
ENGLISH: P(n) = -12.0419187703
FRENCH: P(n) = -12.3235018022
FINNISH: P(n) = -10.9373037307


UNIGRAM: s
ENGLISH: P(s) = -13.3597627439
FRENCH: P(s) = -13.6757206705
FINNISH: P(s) = -12.0550721039


UNIGRAM: i
ENGLISH: P(i) = -14.4878865292
FRENCH: P(i) = -14.7612976903
FINNISH: P(i) = -13.0721876404


UNIGRAM: n
ENGLISH: P(n) = -15.6844349073
FRENCH: P(n) = -15.9179363172
FINNISH: P(n) = -14.3903875149


UNIGRAM: u
ENGLISH: P(u) = -17.1829749475
FRENCH: P(u) = -17.2872074282
FINNISH: P(u) = -15.6568033061


UNIGRAM: a
ENGLISH: P(a) = -18.3363302287
FRENCH: P(a) = -18.3813275701
FINNISH: P(a) = -16.6625138458


UNIGRAM: p
ENGLISH: P(p) = -19.955988587
FRENCH: P(p) = -19.9256137615
FINNISH: P(p) = -18.315679347


UNIGRAM: a
ENGLISH: P(a) = -21.1093438682
FRENCH: P(a) = -21.0197339034
FINNISH: P(a) = -19.3213898867


UNIGRAM: l
ENGLISH: P(l) = -22.4251388976
FRENCH: P(l) = -22.3907476498
FINNISH: P(l) = -20.5313721695


UNIGRAM: j
ENGLISH: P(j) = -25.2544205733
FRENCH: P(j) = -24.9622901172
FINNISH: P(j) = -22.4993382592


UNIGRAM: o
ENGLISH: P(o) = -26.5118170397
FRENCH: P(o) = -26.2221815759
FINNISH: P(o) = -23.8805955405


UNIGRAM: n
ENGLISH: P(n) = -27.7083654178
FRENCH: P(n) = -27.3788202027
FINNISH: P(n) = -25.1987954149


According to the unigram model, the sentence is Finnish
----------------------
BIGRAM MODEL

BIGRAM: Ka
ENGLISH:P(K|a) = -1.62736585659
FRENCH:P(K|a) = -0.649484641256
FINNISH: P(K|a) = -0.59179250409


BIGRAM: ai
ENGLISH:P(a|i) = -2.92456498652
FRENCH:P(a|i) = -1.27784976195
FINNISH: P(a|i) = -1.67973725958


BIGRAM: ip
ENGLISH:P(i|p) = -4.66553733447
FRENCH:P(i|p) = -3.41187967601
FINNISH: P(i|p) = -3.62034568139


BIGRAM: pa
ENGLISH:P(p|a) = -5.60270078176
FRENCH:P(p|a) = -4.19683285841
FINNISH: P(p|a) = -4.23121393959


BIGRAM: as
ENGLISH:P(a|s) = -6.77451164136
FRENCH:P(a|s) = -5.59050807522
FINNISH: P(a|s) = -5.43837972381


BIGRAM: si
ENGLISH:P(s|i) = -8.05057075225
FRENCH:P(s|i) = -6.8409888166
FINNISH: P(s|i) = -6.15197017251


BIGRAM: in
ENGLISH:P(i|n) = -8.53324525008
FRENCH:P(i|n) = -7.74608408724
FINNISH: P(i|n) = -6.9391624558


BIGRAM: ns
ENGLISH:P(n|s) = -9.66650781104
FRENCH:P(n|s) = -8.77135990451
FINNISH: P(n|s) = -8.0709243358


BIGRAM: si
ENGLISH:P(s|i) = -10.9425669219
FRENCH:P(s|i) = -10.0218406459
FINNISH: P(s|i) = -8.7845147845


BIGRAM: in
ENGLISH:P(i|n) = -11.4252414198
FRENCH:P(i|n) = -10.9269359165
FINNISH: P(i|n) = -9.57170706779


BIGRAM: nu
ENGLISH:P(n|u) = -13.5553024759
FRENCH:P(n|u) = -12.829897141
FINNISH: P(n|u) = -10.9584081494


BIGRAM: ua
ENGLISH:P(u|a) = -15.0697324284
FRENCH:P(u|a) = -14.1645114204
FINNISH: P(u|a) = -12.55312743


BIGRAM: ap
ENGLISH:P(a|p) = -16.5526640961
FRENCH:P(a|p) = -15.6320252486
FINNISH: P(a|p) = -14.278223294


BIGRAM: pa
ENGLISH:P(p|a) = -17.4898275434
FRENCH:P(p|a) = -16.416978431
FINNISH: P(p|a) = -14.8890915522


BIGRAM: al
ENGLISH:P(a|l) = -18.4333674368
FRENCH:P(a|l) = -17.6174565099
FINNISH: P(a|l) = -16.0910947855


BIGRAM: lj
ENGLISH:P(l|j) = -22.2043666419
FRENCH:P(l|j) = -21.7015320776
FINNISH: P(l|j) = -17.9049145535


BIGRAM: jo
ENGLISH:P(j|o) = -22.7711508729
FRENCH:P(j|o) = -22.3463842005
FINNISH: P(j|o) = -18.5944041444


BIGRAM: on
ENGLISH:P(o|n) = -23.5098754266
FRENCH:P(o|n) = -22.8816139444
FINNISH: P(o|n) = -19.530658684


According to the bigram model, the sentence is Finnish
